<svg width="23" height="20" viewBox="0 0 23 20" fill="none" xmlns="http://www.w3.org/2000/svg">
<g clip-path="url(#clip0_14_227)">
<path fill-rule="evenodd" clip-rule="evenodd" d="M11.7981 0C5.9981 0 1.2981 4.477 1.2981 10C1.2981 14.238 4.0671 17.855 7.9721 19.313C7.8821 18.52 7.7951 17.309 8.0081 16.445L9.2381 11.477C9.2381 11.477 8.9231 10.879 8.9231 9.992C8.9231 8.602 9.7681 7.562 10.8231 7.562C11.7161 7.562 12.1511 8.203 12.1511 8.972C12.1511 9.832 11.5771 11.113 11.2811 12.301C11.0351 13.297 11.8061 14.109 12.8361 14.109C14.7021 14.109 16.1381 12.234 16.1381 9.531C16.1381 7.137 14.3331 5.461 11.7531 5.461C8.7671 5.461 7.0121 7.594 7.0121 9.801C7.0121 10.661 7.3601 11.582 7.7951 12.082C7.83184 12.1185 7.8581 12.1642 7.87111 12.2144C7.88413 12.2645 7.88344 12.3172 7.8691 12.367C7.7911 12.684 7.6111 13.363 7.5781 13.5C7.5331 13.684 7.4261 13.723 7.2251 13.633C5.9131 13.051 5.0921 11.227 5.0921 9.758C5.0921 6.602 7.5001 3.707 12.0281 3.707C15.6701 3.707 18.5001 6.18 18.5001 9.484C18.5001 12.93 16.2201 15.704 13.0531 15.704C11.9911 15.704 10.9901 15.176 10.6461 14.554C10.6461 14.554 10.1211 16.464 9.9941 16.934C9.7561 17.801 9.1161 18.891 8.6891 19.554C9.6741 19.844 10.7161 20 11.7991 20C17.5981 20 22.2991 15.523 22.2991 10C22.2991 4.477 17.5981 0 11.7991 0L11.7981 0Z" fill="black"/>
</g>
<defs>
<clipPath id="clip0_14_227">
<rect width="22" height="20" fill="white" transform="translate(0.310059)"/>
</clipPath>
</defs>
</svg>
