<svg width="31" height="20" viewBox="0 0 31 20" fill="none" xmlns="http://www.w3.org/2000/svg">
<g clip-path="url(#clip0_14_231)">
<path fill-rule="evenodd" clip-rule="evenodd" d="M23.6921 0H7.1681C5.61127 0 4.11822 0.618445 3.01738 1.71928C1.91654 2.82012 1.2981 4.31318 1.2981 5.87V14.13C1.2981 14.9009 1.44993 15.6642 1.74492 16.3764C2.03992 17.0885 2.4723 17.7356 3.01738 18.2807C4.11822 19.3816 5.61127 20 7.1681 20H23.6921C24.463 20 25.2263 19.8482 25.9384 19.5532C26.6506 19.2582 27.2977 18.8258 27.8428 18.2807C28.3879 17.7356 28.8203 17.0885 29.1153 16.3764C29.4103 15.6642 29.5621 14.9009 29.5621 14.13V5.87C29.5621 4.31318 28.9436 2.82012 27.8428 1.71928C26.742 0.618445 25.2489 0 23.6921 0ZM19.7221 10.402L11.9931 14.088C11.9458 14.1104 11.8937 14.1206 11.8415 14.1174C11.7893 14.1143 11.7387 14.098 11.6945 14.07C11.6503 14.0421 11.6138 14.0034 11.5886 13.9576C11.5633 13.9118 11.5501 13.8603 11.5501 13.808V6.205C11.5502 6.15208 11.5638 6.10006 11.5897 6.05391C11.6156 6.00776 11.6529 5.969 11.698 5.94133C11.7431 5.91366 11.7946 5.898 11.8475 5.89584C11.9003 5.89369 11.9529 5.9051 12.0001 5.929L19.7291 9.845C19.7809 9.87114 19.8244 9.91131 19.8545 9.96093C19.8846 10.0106 19.9002 10.0676 19.8995 10.1257C19.8987 10.1837 19.8817 10.2404 19.8504 10.2893C19.819 10.3381 19.7746 10.3772 19.7221 10.402Z" fill="black"/>
</g>
<defs>
<clipPath id="clip0_14_231">
<rect width="30" height="20" fill="white" transform="translate(0.310059)"/>
</clipPath>
</defs>
</svg>
